# No previous file for Tohome
owner = G81
controller = G81
add_core = G81
culture = thekvrystana
religion = gods_of_the_taychend
capital = ""

hre = no

base_tax = 2
base_production = 2
base_manpower = 1

trade_goods = naval_supplies

1443.1.1 = {	
	owner = G52
	controller = G52
	add_core = G52
}