# No previous file for Banten
owner = F48
controller = F48
add_core = F48
add_core = F49
culture = siadunan_harpy
religion = the_jadd

hre = no

base_tax = 1
base_production = 1
base_manpower = 2

trade_goods = iron

capital = ""

is_city = yes










