# No previous file for Gwadar
owner = A95
controller = A95
add_core = A95
culture = esmari
religion = regent_court

hre = yes

base_tax = 4
base_production = 4
base_manpower = 4

trade_goods = grain

capital = ""

is_city = yes
fort_15th = yes 







