# No previous file for Chiang Mai
owner = F37
controller = F37
add_core = F37
culture = brasanni
religion = bulwari_sun_cult

hre = no

base_tax = 1
base_production = 1
base_manpower = 1

trade_goods = livestock

capital = ""

is_city = yes









