#94 - Luxemborg | 

owner = A21
controller = A21
add_core = A21
culture = moon_elf
religion = elven_forebears

hre = no

base_tax = 8
base_production = 7
base_manpower = 2

trade_goods = fish
capital = ""

is_city = yes






