bjarnrik1_missions = {
	slot = 1 
	generic = no
	ai = yes 
	has_country_shield = yes
	
	potential = {
		tag = Z08
	}
	
	bjarnrik_defeat_obrtrol = {
		icon = mission_viking
		position = 1
		
		provinces_to_highlight = {
			OR = {
				province_id = 995
				province_id = 996
			}
		}
		trigger = {
			NOT = { exists = Z17 }
			owns = 995
			owns = 996
		}
		effect = {
			995 = {
				add_base_tax = -1
				add_base_production = -1
				add_base_manpower = -1
			}
			996 = {
				add_base_tax = -1
				add_base_production = -1
				add_base_manpower = -1
			}
			969 = {
				add_base_tax = 1
				add_base_manpower = 1
			}
			998 = {
				add_base_tax = 1
				add_base_manpower = 1
			}
			968 = {
				add_base_tax = 1
				add_base_manpower = 1
			}
		}
	}
	bjarnrik_purge_the_dalrfjall_trolls = {
		icon = mission_head_on_spike
		required_missions = { bjarnrik_defeat_obrtrol }
		position = 2
		
		provinces_to_highlight = {
			OR = {
				area = dalrfjall_area
				area = thurrsbol_area
			}
		}
		trigger = {
			dalrfjall_area = {
				owned_by = ROOT
				type = ALL
			}
			thurrsbol_area = {
				owned_by = ROOT
				type = ALL
			}
			manpower = 2.5
			mil_power = 50
		}
		effect = {
			add_manpower = -2
			add_mil_power = -50
			add_treasury = 250
			add_country_modifier = { name = "bjarnrik_ancient_grudge_avenged" duration = 9125 }
			largest_decrease_of_troll_tolerance_effect = yes
			dalrfjall_area = {
				add_devastation = 75
				change_culture = west_dalr
				change_religion = ROOT
			}
			thurrsbol_area = {
				add_devastation = 75
				change_culture = west_dalr
				change_religion = ROOT
			}
			hidden_effect = {
				complete_mission = bjarnrik_bear_over_murtrhol
				complete_mission = bjarnrik_dalrfjall_prison_mines
			}
		}
	}
	bjarnrik_great_troll_hunt = {
		icon = mission_alone_in_the_wood
		required_missions = { bjarnrik_purge_the_dalrfjall_trolls }
		position = 3
		
		provinces_to_highlight = {
			area = gullmork_area
		}
		trigger = {
			gullmork_area = {
				owned_by = ROOT
				type = all
			}
			manpower = 3
		}
		effect = {
			add_manpower = -3
			add_country_modifier = { name = "bjarnrik_great_troll_hunt" duration = 5475 }
			gullmork_area = {
				add_base_production = 1
				add_base_manpower = 1
			}
		}
	}
	bjarnrik_new_skaldskolan_temple = {
		icon = mission_conquer_novgorod
		position = 4
		
		provinces_to_highlight = {
			province_id = 976
		}
		trigger = {
			OR = {
				owns_core_province = 976
				owns_or_non_sovereign_subject_of = 976
			}
			976 = {
				has_tax_building_trigger = yes
			}
			adm_power = 25
			dip_power = 25
			mil_power = 25
		}
		effect = {
			add_adm_power = -25
			add_dip_power = -25
			add_mil_power = -25
			976 = {
				add_base_tax = 2
				add_base_production = 2
				add_base_manpower = 1
			}
		}
	}
	bjarnrik_siddaet_fur_amber = {
		icon = mission_rb_colonise_canada
		position = 5
		
		provinces_to_highlight = {
			OR = {
				province_id = 966
				province_id = 965
				area = ismark_area
			}
		}
		trigger = {
			OR = {
				owns_core_province = 966
				owns_or_non_sovereign_subject_of = 966
			}
			OR = {
				owns_core_province = 965
				owns_or_non_sovereign_subject_of = 965
			}
			OR = {
				ismark_area = { owned_by = ROOT type = all }
				AND = {
					owns_or_non_sovereign_subject_of = 968
					owns_or_non_sovereign_subject_of = 970
					owns_or_non_sovereign_subject_of = 971
				}
			}
			years_of_income = 1
			966 = {
				has_trade_building_trigger = yes
			}
			965 = {
				has_production_building_trigger = yes
			}
			ismark_area = {
				has_production_building_trigger = yes
			}
		}
		effect = {
			add_years_of_income = -1
			966 = {
				add_base_tax = 1
				add_base_production = 1
				add_base_manpower = 1
			}
			965 = {
				add_base_tax = 1
				add_base_production = 2
				add_province_modifier = { name = "bjarnrik_sidaett_trade" duration = -1 }
			}
			ismark_area = {
				add_province_modifier = { name = "bjarnrik_sidaett_trade" duration = -1 }
			}
		}
	}
	bjarnrik_fiorgam = {
		icon = mission_rb_conquer_the_isles
		required_missions = { bjarnrik_westward_voyages }
		position = 6
		
		provinces_to_highlight = {
			OR = {
				area = fiorgram_island_area
				province_id = 949
			}
		}
		trigger = {
			num_of_provinces_owned_or_owned_by_non_sovereign_subjects_with = {
					value = 2
					area = fiorgram_island_area
					is_city = yes
			}
			owns_or_non_sovereign_subject_of = 949
		}
		effect = {
			949 = {
				center_of_trade = 1
				add_base_tax = 1
				add_base_production = 1
				add_base_manpower = 1
			}
			fiorgram_island_area = { add_claim = ROOT }
		}
	}
	bjarnrik_stalwart_outpost = {
		icon = mission_protect_white_sea_trade
		required_missions = { bjarnrik_fiorgam }
		position = 7
		
		provinces_to_highlight = {
			province_id = 2787
		}
		trigger = {
			owns_or_non_sovereign_subject_of = 2787
		}
		effect = {
			2787 = {
				add_base_tax = 1
				add_base_production = 1
				add_province_modifier = { name = "bjarnrik_stalwart_outpost" duration = -1}
				if = {
					limit = { NOT = { trade_goods = precursor_relics } }
					change_trade_goods = precursor_relics
				}
			}
		}
	}
	bjarnrik_frozen_anomalies = {
		icon = mission_treasure_room
		required_missions = { bjarnrik_stalwart_outpost }
		position = 8
		
		provinces_to_highlight = {
			province_id = 2787
		}
		trigger = {
			owns_or_non_sovereign_subject_of = 2787
			2787 = {
				base_production = 5
				has_production_building_trigger = yes
			}
		}
		effect = {
			2787 = {
				add_building_construction = {
						building = tradecompany
						speed = 1
						cost = 0
				}
			}
		}
	}
	bjarnrik_prospect_for_copper = { #cuprite minerals indicate copper minerals bornite, chalcopyrite
		icon = mission_rb_central_belt_coal_mining
		required_missions = { bjarnrik_geological_institute_of_the_dalr }
		position = 10
		
		provinces_to_highlight = {
			province_id = 994
		}
		trigger = {
			owns_core_province = 994
			OR = {
				advisor = natural_scientist
				ruler_has_personality = free_thinker_personality
				ruler_has_personality = scholar_personality
			}
			treasury = 100
		}
		effect = {
			994 = {
				if = {
					limit = {
						NOT = { trade_goods = copper }
					}
					change_trade_goods = copper
				}
				else = {
					add_mil_power = 50
				}
				add_dwarven_minority_size_effect = yes
				add_base_production = 1
			}
			medium_increase_of_dwarven_tolerance_effect = yes
		}
	}
	bjarnrik_prospect_for_gold = { #gold seams in granite
		icon = mission_zambezi_gold
		required_missions = { 
			bjarnrik_prospect_for_copper
			bjarnrik_prospect_for_iron
		}
		position = 11
		
		provinces_to_highlight = {
			province_id = 974
		}
		trigger = {
			owns_core_province = 974
			OR = {
				advisor = natural_scientist
				ruler_has_personality = free_thinker_personality
				ruler_has_personality = scholar_personality
			}
			treasury = 200
		}
		effect = {
			974 = {
				if = {
					limit = {
						NOT = { trade_goods = gold }
					}
					change_trade_goods = gold
				}
				else = {
					add_dip_power = 50
				}
				add_dwarven_minority_size_effect = yes
				add_base_production = 1
			}
			medium_increase_of_dwarven_tolerance_effect = yes
		}
	}
}

bjarnrik2_missions = {
	slot = 2
	generic = no
	ai = yes 
	has_country_shield = yes
	
	potential = {
		tag = Z08
	}
	
	bjarnrik_bear_over_murtrhol = {
		icon = mission_sweat_fealty
		required_missions = { bjarnrik_defeat_obrtrol }
		position = 2
		
		provinces_to_highlight = {
			OR = {
				area = dalrfjall_area
				area = thurrsbol_area
			}
		}
		trigger = {
			dalrfjall_area = {
				owned_by = ROOT
				type = ALL
			}
			thurrsbol_area = {
				owned_by = ROOT
				type = ALL
			}
			dip_power = 150
			treasury = 100
		}
		effect = {
			add_dip_power = -150
			add_treasury = -100
			add_accepted_culture = fjord_troll
			medium_increase_of_troll_tolerance_effect = yes
			dalrfjall_area = {
				add_base_manpower = 1
				add_province_modifier = { name = "bjarnrik_autonomous_troll_clans" duration = -1 }
			}
			thurrsbol_area = {
				add_base_manpower = 1
				add_province_modifier = { name = "bjarnrik_autonomous_troll_clans" duration = -1 }
			}
			hidden_effect = {
				968 = {
					add_troll_minority_size_effect = yes
				}
				970 = {
					add_troll_minority_size_effect = yes
				}
				971 = {
					add_troll_minority_size_effect = yes
				}
				998 = {
					add_troll_minority_size_effect = yes
				}
				complete_mission = bjarnrik_purge_the_dalrfjall_trolls
				complete_mission = bjarnrik_great_troll_hunt
			}
		}
	}
	bjarnrik_dalrfjall_prison_mines = {
		icon = mission_state_manufactories
		required_missions = { bjarnrik_bear_over_murtrhol }
		position = 3
		
		provinces_to_highlight = {
			OR = {
				area = dalrfjall_area
				area = thurrsbol_area
			}
		}
		trigger = {
			dalrfjall_area = {
				owned_by = ROOT
				type = ALL
			}
			thurrsbol_area = {
				owned_by = ROOT
				type = ALL
			}
			995 = {
				has_production_building_trigger = yes
			}
			
			OR = {
				994 = { has_production_building_trigger = yes }
				1000 = { has_production_building_trigger = yes }
			}
		}
		effect = {
			medium_increase_of_troll_tolerance_effect =  yes
			dalrfjall_area = {
				add_province_modifier = { name = "bjarnrik_dalrfjall_prison_mines" duration = -1 }
			}
			thurrsbol_area = {
				add_province_modifier = { name = "bjarnrik_dalrfjall_prison_mines" duration = -1 }
			}
			add_country_modifier = { name = "bjarnrik_forest_troll_allies" duration = 10950 }
		}
	}
	bjarnrik_golden_forest = {
		icon = mission_amur_acquisition
		position = 4
		
		required_missions = {
			bjarnrik_great_troll_hunt
			bjarnrik_dalrfjall_prison_mines
		}
		provinces_to_highlight = {
			OR = {
				area = gullmork_area
				area = gifrbygd_area
			}
		}
		trigger = {
			gullmork_area = {
				owned_by = ROOT
				type = all
			}
			gifrbygd_area = {
				owned_by = ROOT
				type = all
			}
			2830 = {
				base_production = 5
				has_trade_building_trigger = yes
			}
			2831 = {
				base_production = 5
				has_trade_building_trigger = yes
			}
		}
		effect = {
			2830 = {
				center_of_trade = 1
				if = {
					limit = {
						NOT = { trade_goods = gold }
					}
					change_trade_goods = gold
				}
			}
			gullmork_area = {
				add_province_modifier = { name = "bjarnrik_gullmork_gold" duration = 10950 }
			}
			hidden_effect = {
				gullmork_area = {
					add_troll_minority_size_effect = yes
				}
				gifrbygd_area = {
					add_troll_minority_size_effect = yes
				}
			}
		}
	}
	bjarnrik_westward_voyages = {
		icon = mission_look_west
		required_missions = { bjarnrik_stormfleet }
		position = 5
		
		trigger = {
			exploration_ideas = 1
			OR = {
				has_personal_deity = voyage_of_the_north_raider
				has_personal_deity = dirge_of_the_deep
				has_personal_deity = master_boat_builders_of_far_gerudia_beyond
				ruler_has_personality = navigator_personality
				ruler_has_personality = expansionist_personality
			}
			custom_trigger_tooltip = {
				tooltip = aelantir_discovery.tooltip
				OR = {
					colonial_endralliande = {
						has_discovered = ROOT
					}
					colonial_dalaire = {
						has_discovered = ROOT
					}
				}
			}
		}
		effect = {
			add_country_modifier = {
				name = "the_unknown_frontier"
				duration = 5475
			}
		}
	}
	
	bjarnrik_ambercoast = {
		icon = mission_scandinavian_port_authority
		required_missions = { bjarnrik_westward_voyages }
		position = 6
		
		provinces_to_highlight = {
			region = dalaire_region
		}
		trigger = {
			num_of_provinces_owned_or_owned_by_non_sovereign_subjects_with = {
					value = 1
					region = dalaire_region
					is_city = yes
			}
		}
		effect = {
			add_country_modifier = {
				name = "colonial_enthusiasm"
				duration = 7300
			}
		}
	}
	bjarnrik_frondvagr = {
		icon = develop_our_capital
		required_missions = { bjarnrik_ambercoast }
		position = 7
		
		provinces_to_highlight = {
			province_id = 1202
			province_id = 1207
		}
		trigger = {
			any_subject_country = {
				is_colonial_nation_of = ROOT
				owns_or_non_sovereign_subject_of = 1202
				owns_or_non_sovereign_subject_of = 1207
			}
		}
		effect = {
			1202 = {
				add_base_tax = 1
				add_base_production = 1
				add_base_manpower = 1
			}
			add_country_modifier = {
				name = "bjarnrik_ambercoast"
				duration = 9125
			}
		}
	}
	bjarnrik_mineral_exploration = {
		icon = mission_riches_of_golconda
		required_missions = { bjarnrik_frondvagr }
		position = 8
		
		provinces_to_highlight = {
			colonial_region = colonial_dalaire
		}
		trigger = {
			OR = {
				num_of_provinces_owned_or_owned_by_non_sovereign_subjects_with = {
					colonial_region = colonial_dalaire
					value = 2
					trade_goods = iron
				}
				num_of_provinces_owned_or_owned_by_non_sovereign_subjects_with = {
					colonial_region = colonial_dalaire
					value = 2
					trade_goods = copper
				}
				num_of_provinces_owned_or_owned_by_non_sovereign_subjects_with = {
					colonial_region = colonial_dalaire
					value = 1
					trade_goods = gold
				}
				num_of_provinces_owned_or_owned_by_non_sovereign_subjects_with = {
					colonial_region = colonial_dalaire
					value = 1
					trade_goods = gems
				}
			}
		}
		effect = {
			add_country_modifier = { name = "bjarnrik_geological_studies" duration = 9125 }
		}
	}
	bjarnrik_geological_institute_of_the_dalr = {
		icon = leiden_university
		required_missions = { 
			bjarnrik_mineral_exploration
			bjarnrik_frozen_anomalies
		}
		position = 9
		
		provinces_to_highlight = {
			province_id = 956
		}
		trigger = {
			treasury = 250
			adm_power = 50
			dip_power = 50
			owns_core_province = 956
		}
		effect = {
			add_treasury = -250
			add_adm_power = -50
			add_dip_power = -50
			956 = {
				add_building_construction = {
					building = university
					speed = 1
					cost = 0
				}
				add_dwarven_minority_size_effect = yes
			}
			small_increase_of_dwarven_tolerance_effect = yes
		}
	}
	bjarnrik_prospect_for_iron = { #hematite BIFS, magnetite igneous
		icon = claim_the_borderlands
		required_missions = { bjarnrik_geological_institute_of_the_dalr }
		position = 10
		
		provinces_to_highlight = {
			province_id = 969
		}
		trigger = {
			owns_core_province = 969
			OR = {
				advisor = natural_scientist
				ruler_has_personality = free_thinker_personality
				ruler_has_personality = scholar_personality
			}
			treasury = 150
		}
		effect = {
			969 = {
				if = {
					limit = {
						NOT = { trade_goods = iron }
					}
					change_trade_goods = iron
				}
				else = {
					add_adm_power = 50
				}
				add_dwarven_minority_size_effect = yes
				add_base_production = 1
			}
			medium_increase_of_dwarven_tolerance_effect = yes
		}
	}
	bjarnrik_prospect_for_coal = { #Lignite
		icon = mission_industria_sedera
		required_missions = { 
			bjarnrik_prospect_for_copper
			bjarnrik_prospect_for_iron
		}
		position = 11
		
		provinces_to_highlight = {
			province_id = 953
		}
		trigger = {
			is_institution_enabled = enlightenment
			owns_core_province = 953
			OR = {
				advisor = natural_scientist
				ruler_has_personality = free_thinker_personality
				ruler_has_personality = scholar_personality
			}
			treasury = 200
		}
		effect = {
			953 = {
				if = {
					limit = {
						NOT = { trade_goods = coal }
					}
					change_trade_goods = coal
				}
				else = {
					add_adm_power = 25
					add_dip_power = 25
					add_mil_power = 25
				}
				add_dwarven_minority_size_effect = yes
				add_base_production = 1
			}
			medium_increase_of_dwarven_tolerance_effect = yes
		}
	}
}

bjarnrik3_missions = {
	slot = 3
	generic = no
	ai = yes 
	has_country_shield = yes
	
	potential = {
		tag = Z08
	}
	
	bjarnrik_jotunsglotta = {
		icon = invest_in_the_rich_trades
		required_missions = { }
		position = 1
		
		provinces_to_highlight = {
			province_id = 708
		}
		trigger = {
			owns_core_province = 708
			708 = {
				province_has_current_tech_fort_trigger = yes
			}
		}
		effect = {
			708 = { add_permanent_province_modifier = { name = "bjarnrik_jotunsglotta_fortified_pass" duration = -1 } }
			698 = { add_claim = ROOT }
		}
	}
	bjarnrik_poke_the_eyegard = {
		icon = mission_rb_unite_the_clans
		required_missions = { bjarnrik_jotunsglotta }
		position = 2
		
		provinces_to_highlight = {
			OR = {
				province_id = 698
				province_id = 699
			}
		}
		trigger = {
			698 = { country_or_subject_holds = ROOT }
			699 = { country_or_subject_holds = ROOT }
		}
		effect = {
			serpentshead_area = { 
				add_claim = ROOT
			}
			add_country_modifier = { name = "bjarnrik_foothold_alenic" duration = 7300 }
		}
	}
	bjarnrik_stormfleet = {
		icon = mission_rb_scottish_north_sea_trade
		required_missions = { bjarnrik_celmaldor }
		position = 4
		
		trigger = {
			navy_size_percentage = 0.9
			num_of_light_ship = 10
			num_of_heavy_ship = 6
		}
		effect = {
			add_country_modifier = { name = "bjarnrik_stormfleet" duration = 9125 }
			define_explorer = {
				name = "Freidar the Mad Mariner"
				fire = 2
				shock = 3
				manuever = 5
				siege = 1
			}
		}
	}
	bjarnrik_codd_wars = {
		icon = mission_rb_cod_wars
		required_missions = { bjarnrik_stormfleet }
		position = 5
		
		provinces_to_highlight = {
			area = storm_isles_area
		}
		trigger = {
			storm_isles_area = {
				owned_by = ROOT
				type = ALL
			}
		}
		effect = {
			coddorran_heights_area = {
				add_claim = ROOT
			}
			dragonspine_area = {
				add_claim = ROOT
			}
		}
	}
	bjarnrik_oddansbayer_kingdom = {
		icon = mission_advance_to_the_dnieper
		required_missions = { bjarnrik_codd_wars }
		position = 6
		
		provinces_to_highlight = {
			OR = {
				area = dragonspine_area
				area = dragonpoint_area
				province_id = 177
			}
		}
		trigger = {
			dragonspine_area = {
				owned_by = ROOT
				type = ALL
			}
			dragonpoint_area = {
				owned_by = ROOT
				type = ALL
			}
			177 = {
				owned_by = ROOT
			}
			OR = {
				NOT = { exists = A27 }
				NOT = { exists = A26 }
			}
		}
		effect = {
			177 = {
				change_culture = ROOT
				change_religion = ROOT
				add_province_modifier = { name = "bjarnrik_drekivagr" duration = -1 }
				change_province_name = "Drekivágr" #Dragon Bay
				rename_capital = "Fjollóttvágr" #Mountainous Bay like Oddansbay
			}
			dragon_coast_region = {
				add_permanent_claim = ROOT
			}
			reaver_coast_area = {
				add_permanent_claim = ROOT
			}
		}
	}
	bjarnrik_reveria = {
		icon = mission_conquer_romania
		required_missions = {
			bjarnrik_oddansbayer_kingdom
			bjarnrik_the_bear_and_the_eagle
		}
		position = 8
		
		provinces_to_highlight = {
			OR = {
				area = reaver_coast_area
				province_id = 129
				province_id = 142
				province_id = 143
			}
		}
		trigger = {
			reaver_coast_area = {
				is_core = ROOT
				type = all
			}
			owns = 129
			owns = 142
			owns = 143
		}
		effect = {
			add_accepted_culture = reverian
			reaver_coast_area = {
				add_province_modifier = { name = "bjarnrik_reveria" duration = 5475 }
			}
			129 = { add_province_modifier = { name = "bjarnrik_reveria" duration = 5475 } }
			142 = { add_province_modifier = { name = "bjarnrik_reveria" duration = 5475 } }
			143 = { add_province_modifier = { name = "bjarnrik_reveria" duration = 5475 } }
		}
	}
	bjarnrik_derhildes_realm = {
		icon = the_hundred_years_war
		required_missions = {
			bjarnrik_reveria
		}
		position = 8
		
		provinces_to_highlight = {
			area = deranne_area
		}
		trigger = {
			deranne_area = {
				is_core = ROOT
				type = ALL
			}
			dip_power = 50
		}
		effect = {
			add_dip_power = -50
			add_accepted_culture = derannic
			darom_area = {
				add_permanent_claim = ROOT
			}
			northern_flats_area = {
				add_permanent_claim = ROOT
			}
			hidden_effect = {
				country_event = { id = "gerudia.9" days = 7300 }
			}
		}
	}
	bjarnrik_kingdom_of_pearls = {
		icon = mission_combat_barbary_piracy
		required_missions = {
			bjarnrik_derhildes_realm
		}
		position = 9
		
		provinces_to_highlight = {
			area = damespearl_area
		}
		trigger = {
			damespearl_area = {
				is_core = ROOT
			}
		}
		effect = {
			pearlywine_area = {
				add_permanent_claim = ROOT
			}
			tretunica_area = {
				add_permanent_claim = ROOT
			}
			9 = {
				add_permanent_claim = ROOT
			}
			hidden_effect = {
				country_event = { id = "gerudia.10" days = 7300 }
			}
		}
	}
	bjarnrik_jewel_of_anbennar = {
		icon = mission_control_venice
		required_missions = {
			bjarnrik_kingdom_of_pearls
		}
		position = 10
		
		provinces_to_highlight = {
			OR = {
				area = west_damesear_area
				area = east_damesear_area
			}
		}
		trigger = {
			9 = {
				is_core = ROOT
			}
			owns_or_non_sovereign_subject_of = 8
			num_of_owned_provinces_with = {
				OR = {
					area = west_damesear_area
					area = east_damesear_area
				}
				value = 4
			}
		}
		effect = {
			add_country_modifier = { name = "bjarnrik_imperial_ambitions" duration = 10950 }
			add_prestige = 25
		}
	}
	
}

bjarnrik4_missions = {
	slot = 4 
	generic = no
	ai = yes 
	has_country_shield = yes
	
	potential = {
		tag = Z08
	}
	
	bjarnrik_embrace_cannorian_practices = {
		icon = sponsor_the_arts
		position = 1
		
		provinces_to_highlight = {
			superregion = western_cannor_superregion
		}
		trigger = {
			years_of_income = 0.75
			custom_trigger_tooltip = {
				tooltip = tooltip_bjarnrik_renaissance
				is_institution_enabled = renaissance
				any_known_country = {
					capital_scope = {
						superregion = western_cannor_superregion
					}
					has_institution = renaissance
					has_opinion = {
						who = ROOT
						value = 100
					}
				}
			}
			owns_core_province = 956
			956 = {
				has_trade_building_trigger = yes
			}
		}
		effect = {
			if = {
				limit = { NOT = { has_institution = renaissance } }
				956 = {
					add_institution_embracement = {
						which = renaissance
						value = 50
					}
				}
				add_years_of_income = -0.75
			}
			else = {
				add_adm_power = 25
				add_dip_power = 25
				add_mil_power = 25
			}
		}
	}
	bjarnrik_port_of_konungrhavn = {
		icon = secure_the_republic
		required_missions = { bjarnrik_embrace_cannorian_practices }
		position = 1
		
		trigger = {
			custom_trigger_tooltip = {
				tooltip = tooltip_has_colonial_subject_in_new_world_bjarnrik
					any_subject_country = {
						is_colonial_nation_of = ROOT
						OR = {
							capital_scope = { colonial_region = colonial_dalaire }
							capital_scope = { colonial_region = colonial_noruin }
							capital_scope = { colonial_region = colonial_endralliande }
						}
					}
			}
		}
		effect = {
			956 = {
				add_province_modifier = { name = "bjarnrik_colonial_expeditions" duration = 7300 }
				add_province_modifier = { name = "bjarnrik_konungrhavn_port" duration = -1 }
				change_trade_goods = naval_supplies
			}
		}
	}
	
	bjarnrik_celmaldor = {
		icon = protect_against_austria
		required_missions = {
			bjarnrik_poke_the_eyegard
			bjarnrik_reunion_of_the_bears
		}
		position = 3
		
		trigger = {
			OR = {
				NOT = { exists = Z22 }
				Z22 = { is_vassal = yes }
			}
		}
		effect = {
			country_event = { id = "gerudia.8" }
			694 = { add_claim = ROOT }
			700 = { add_claim = ROOT }
		}
	}
	bjarnrik_blue_alenic_coast = {
		icon = overshadow_venice
		required_missions = { bjarnrik_celmaldor }
		position = 4
		
		provinces_to_highlight = {
			OR = {
				province_id = 700
				province_id = 724
				province_id = 723
				province_id = 705
			}
			NOT = {
				country_or_non_sovereign_subject_holds = ROOT
			}
		}
		trigger = {
			owns_or_non_sovereign_subject_of = 700
			owns_or_non_sovereign_subject_of = 724
			owns_or_non_sovereign_subject_of = 723
			owns_or_non_sovereign_subject_of = 705
		}
		effect = {
			northern_greatwoods_area = { add_claim = ROOT }
			dinesck_area = { add_claim = ROOT }
			west_chillsbay_area = { add_claim = ROOT }
			add_adm_power = 25
			add_dip_power = 25
			add_mil_power = 25
		}
	}
	bjarnrik_alenic_loyalty = {
		icon = mission_swear_fealty_knight
		required_missions = { bjarnrik_blue_alenic_coast }
		position = 5
		
		provinces_to_highlight = {
			OR = {
				culture = blue_reachman
				culture = old_alenic
			}
		}
		trigger = {
			calc_true_if = {
				all_subject_country = {
					OR = {
						primary_culture = blue_reachman
						primary_culture = old_alenic
					}
				}
				amount = 2
			}
		}
		effect = {
			add_country_modifier = { name = "bjarnrik_alenic_cubs" duration = -1 }
			add_legitimacy = 20
		}
	}
	bjarnrik_fortify_against_gawed = {
		icon = fortress_of_belgrade
		required_missions = { bjarnrik_alenic_loyalty }
		position = 6
		
		provinces_to_highlight = {
			region = alenic_reach_region
			NOT = { owned_by = A13 }
		}
		trigger = {
			OR = {
				AND = {
					is_rival = A13
					num_of_provinces_owned_or_owned_by_non_sovereign_subjects_with = {
						value = 5
						region = alenic_reach_region 
						has_fort_building_trigger = yes
					}
				}
				NOT = { exists = A13 }
			}
		}
		effect = {
			every_subject_country = {
				limit = {
					capital_scope = {
						region = alenic_reach_region
					}
				}
				add_country_modifier = { name = "bjarnrik_alenic_fortifications2" duration = 9125 }
			}
			random_owned_province = {
				limit = {
					region = alenic_reach_region
					has_fort_building_trigger = yes
					owned_by = ROOT
				}
				add_province_modifier = { name = "bjarnrik_alenic_fortifications1" duration = 9125 }
			}
			random_owned_province = {
				limit = {
					region = alenic_reach_region
					has_fort_building_trigger = yes
					owned_by = ROOT
				}
				add_province_modifier = { name = "bjarnrik_alenic_fortifications1" duration = 9125 }
			}
			random_owned_province = {
				limit = {
					region = alenic_reach_region
					has_fort_building_trigger = yes
					owned_by = ROOT
				}
				add_province_modifier = { name = "bjarnrik_alenic_fortifications1" duration = 9125 }
			}
			random_owned_province = {
				limit = {
					region = alenic_reach_region
					has_fort_building_trigger = yes
					owned_by = ROOT
				}
				add_province_modifier = { name = "bjarnrik_alenic_fortifications1" duration = 9125 }
			}
			random_owned_province = {
				limit = {
					region = alenic_reach_region
					has_fort_building_trigger = yes
					owned_by = ROOT
				}
				add_province_modifier = { name = "bjarnrik_alenic_fortifications1" duration = 9125 }
			}
		}
	}
	bjarnrik_the_bear_and_the_eagle = {
		icon = encroach_on_the_germans
		required_missions = { 
			bjarnrik_fortify_against_gawed
			bjarnrik_rid_the_east_of_orcs
		}
		position = 7
		
		provinces_to_highlight = {
			region = alenic_frontier_region
			NOT = {
				country_or_non_sovereign_subject_holds = ROOT
			}
		}
		trigger = {
			num_of_provinces_owned_or_owned_by_non_sovereign_subjects_with = {
				value = 6
				region = alenic_frontier_region
			}
		}
		effect = {
			add_mil_power = 100
			add_prestige = 25
			gawed_area = {
				add_permanent_claim = ROOT
			}
			alenvord_area = {
				add_permanent_claim = ROOT
			}
			balvord_area = {
				add_permanent_claim = ROOT
			}
		}
	}
	bjarnrik_northern_empire = {
		icon = reform_bergordnung
		required_missions = { bjarnrik_the_bear_and_the_eagle }
		position = 8
		
		provinces_to_highlight = {
			region = alenic_frontier_region
			NOT = {
				country_or_non_sovereign_subject_holds = ROOT
			}
		}
		trigger = {
			owns_or_non_sovereign_subject_of = 221
			is_great_power = yes
			A13 = {
				NOT = { is_great_power = yes }
			}
			num_of_provinces_owned_or_owned_by_non_sovereign_subjects_with = {
				value = 12
				region = alenic_frontier_region
			}
		}
		effect = {
			alenic_frontier_region = {
				limit = {
					NOT = {
						owned_by = ROOT
					}
				}
				add_permanent_claim = ROOT
			}
			add_adm_power = 100
			add_dip_power = 100
			add_mil_power = 100
		}
	}
	bjarnrik_skaldhyrric_league = {
		icon = balance_of_power
		required_missions = { bjarnrik_northern_empire }
		position = 9
		
		trigger = {
			religion = skaldhyrric_faith
			num_of_provinces_owned_or_owned_by_non_sovereign_subjects_with = {
				religion = skaldhyrric_faith
				value = 150
			}
		}
		effect = {
			add_country_modifier = { name = "bjarnrik_skaldhyrric_league" duration = -1 }
		}
	}
	bjarnrik_tretun = {
		icon = conquer_east_francia
		required_missions = { bjarnrik_kingdom_of_pearls }
		position = 11
		
		provinces_to_highlight = {
			area = tretunica_area
		}
		trigger = {
			OR = {
				tretunica_area = {
					owned_by = ROOT
				}
				AND = {
					owns_or_non_sovereign_subject_of = 47
					owns_or_non_sovereign_subject_of = 48
				}
			}
		}
		effect = {
			add_legitimacy = 25
			tretunica_area = {
				limit = { owned_by = ROOT }
				add_province_modifier = { name = "bjarnrik_tretunica" duration = 9125 }
			}
			damespearl_area = {
				limit = { owned_by = ROOT }
				add_province_modifier = { name = "bjarnrik_tretunica" duration = 9125 }
			}
			pearlywine_area = {
				limit = { owned_by = ROOT }
				add_province_modifier = { name = "bjarnrik_tretunica" duration = 9125 }
			}
		}
	}
}

bjarnrik5_missions = {
	slot = 5
	generic = no
	ai = yes 
	has_country_shield = yes
	
	potential = {
		tag = Z08
	}
	
	bjarnrik_consult_with_skalds = { #event where you can gain claims on Skaldskola or vassalize them
		icon = mission_missive
		required_missions = { }
		position = 1
		
		trigger = {
			OR = {
				AND = {
					reverse_has_opinion = {
						who = Z09
						value = 180
					}
					mission_completed = bjarnrik_defeat_obrtrol
				}
				NOT = { exists = Z09 }
			}
		}
		effect = {
			if = {
				limit = {
					exists = Z09
				}
				country_event = { id = "gerudia.3" }
			}
			else = {
				elkaesals_slumber_area = { add_permanent_claim = ROOT }
				976 = { add_permanent_claim = ROOT }
			}
		}
	}
	bjarnrik_reunion_of_the_bears = {
		icon = king_of_kings
		required_missions = { bjarnrik_consult_with_skalds }
		position = 2
		
		trigger = {
			OR = {
				NOT = { exists = Z10 }
				NOT = { exists = Z11 }
			}
		}
		effect = {
			olavslund_area = {
				add_permanent_claim = ROOT
			}
			985 = {
				add_permanent_claim = ROOT
			}	
			add_stability_or_adm_power = yes
		}
	}
	bjarnrik_titan_and_dragon = {
		icon = push_on_to_bulgaria
		required_missions = { bjarnrik_reunion_of_the_bears }
		position = 3
		
		provinces_to_highlight = {
			OR = {
				area = elkaesals_slumber_area
				area = olavslund_area
			}
			NOT = {
				country_or_non_sovereign_subject_holds = ROOT
			}
		}
		trigger = {
			elkaesals_slumber_area = {
				owned_by = ROOT
				type = ALL
			}
			olavslund_area = {
				owned_by = ROOT
				type = ALL
			}
		}
		effect = {
			nyrford_area = {
				add_permanent_claim = ROOT
			}
			naugsvol_area = {
				add_permanent_claim = ROOT
			}
			esfjall_area = {
				add_permanent_claim = ROOT
			}
		}
	}
	bjarnik_olavlund_united = {
		icon = the_alpine_wall
		required_missions = { bjarnrik_titan_and_dragon }
		position = 4
		
		provinces_to_highlight = {
			OR = {
				area = nyrford_area
				area = naugsvol_area
				area = esfjall_area
			}
			NOT = {
				country_or_non_sovereign_subject_holds = ROOT
			}
		}
		trigger = {
			nyrford_area = {
				owned_by = ROOT
				type = ALL
			}
			naugsvol_area = {
				owned_by = ROOT
				type = ALL
			}
			esfjall_area = {
				owned_by = ROOT
				type = ALL
			}
		}
		effect = {
			gerudian_coast_region = {
				add_permanent_claim = ROOT
			}
			add_country_modifier = { name = "bjarnrik_olavlund" duration = 18250 }
		}
	}
	bjarnrik_thaw_the_maw = {
		icon = mission_duel_snow
		required_missions = { bjarnik_olavlund_united }
		position = 5
		
		provinces_to_highlight = {
			OR = {
				area = vrorenmarch_area
				area = northern_giants_tears_area
			}
			NOT = {
				country_or_non_sovereign_subject_holds = ROOT
			}
		}
		trigger = {
			vrorenmarch_area = {
				owned_by = ROOT
				type = all
			}
			northern_giants_tears_area = {
				owned_by = ROOT
				type = all
			}
		}
		effect = {
			vrorenmarch_area = {
				change_culture = white_reachman
				change_religion = skaldhyrric_faith
			}
			vrorenwall_area = {
				add_permanent_claim = ROOT
			}
			cedesck_area = {
				add_permanent_claim = ROOT
			}
		}
	}
	bjarnrik_rid_the_east_of_orcs = {
		icon = the_crown_of_lothair
		required_missions = { bjarnrik_thaw_the_maw }
		position = 6
		
		provinces_to_highlight = {
			OR = {
				area = cedesck_area
				area = sondaar_area
				area = east_chillsbay_area
				area = vrorenwall_area
				area = gulletpeak_area
				area = wudhal_area
			}
			NOT = {
				country_or_non_sovereign_subject_holds = ROOT
			}
		}
		trigger = {
			num_of_provinces_owned_or_owned_by_non_sovereign_subjects_with = {
				value = 15 
				OR = {
					area = cedesck_area
					area = sondaar_area
					area = east_chillsbay_area
					area = vrorenwall_area
					area = gulletpeak_area
					area = wudhal_area
				}
			}
			AND = {
				NOT = { exists = Z18 }
				NOT = { exists = Z50 }
			}
		}
		effect = {
			add_country_modifier = { name = "bjarnrik_savior_of_the_east" duration = 18250 }
			add_prestige = 25
			alenic_reach_region = {
				limit = {
					culture = gray_orc
					culture = white_reachman
					NOT = {
						owned_by = ROOT
					}
				}
				add_permanent_claim = ROOT
			}
			alenic_reach_region = {
				limit = {
					culture = gray_orc
					owned_by = ROOT
				}
				change_culture = white_reachman
				change_religion = skaldhyrric_faith
			}
		}
	}
	bjarnrik_industrial_revolution = {
		icon = industrialized_rhineland
		required_missions = { bjarnrik_northern_empire }
		position = 9
		
		trigger = {
			is_institution_enabled = enlightenment
			OR = {
				furnace = 2
				calc_true_if = {
					all_owned_province = {
						has_manufactory_trigger = yes
					}
					amount = 25
				}
			}
		}
		effect = {
			add_country_modifier = {
				name = "proto_industrialization"
				duration = 9125
			}
			956 = {
				add_institution_embracement = {
					which = enlightenment
					value = 50
				}
			}
		}
	}
	bjarnik_skalds_and_artificers = {
		icon = contracts_of_correspondence
		required_missions = { bjarnrik_industrial_revolution }
		position = 10
		
		trigger = {
			has_estate = estate_artificers
			has_estate = estate_church
			has_institution = manufactories
			estate_loyalty = {
				estate = estate_artificers
				loyalty = 60
			}
			estate_loyalty = {
				estate = estate_church
				loyalty = 60
			}
			adm_power = 100
			dip_power = 100
		}
		effect = {
			add_adm_power = -100
			add_dip_power = -100
			country_event = { id = "gerudia.11" }
		}
	}
}